"bwt","gestation","parity","age","height","weight","smoke"
120,284,0,27,62,100,0
113,282,0,33,64,135,0
128,279,0,28,64,115,1
123,999,0,36,69,190,0
108,282,0,23,67,125,1
136,286,0,25,62,93,0
138,244,0,33,62,178,0
132,245,0,23,65,140,0
120,289,0,25,62,125,0
143,299,0,30,66,136,1
140,351,0,27,68,120,0
144,282,0,32,64,124,1
141,279,0,23,63,128,1
110,281,0,36,61,99,1
114,273,0,30,63,154,0
115,285,0,38,63,130,0
92,255,0,25,65,125,1
115,261,0,33,60,125,1
144,261,0,33,68,170,0
119,288,0,43,66,142,1
105,270,0,22,56,93,0
115,274,0,27,67,175,1
137,287,0,25,66,145,0
122,276,0,30,68,182,0
131,294,0,23,65,122,0
103,261,0,27,65,112,1
146,280,0,26,58,106,0
114,266,0,20,65,175,1
125,292,0,32,65,125,0
114,274,0,28,66,132,1
122,270,0,26,61,105,0
93,278,0,34,61,146,0
130,268,0,30,66,123,0
119,275,0,23,60,105,0
113,281,0,24,65,120,0
134,283,0,22,67,130,0
107,279,0,24,63,115,0
134,288,0,23,63,92,1
122,267,0,27,65,101,1
128,282,0,31,65,999,0
129,293,0,30,61,160,0
110,278,0,23,63,177,0
138,302,0,26,99,999,1
111,270,0,27,61,119,0
87,248,0,37,65,130,1
143,274,0,27,63,110,1
155,294,0,32,66,150,0
110,272,0,25,60,90,0
122,275,0,26,66,147,0
145,291,0,26,63,119,1
115,258,0,26,62,130,0
108,283,0,31,65,148,1
102,282,0,28,61,110,0
143,286,0,31,64,126,0
146,267,0,30,67,132,0
124,275,0,22,60,130,0
124,278,0,26,70,145,1
145,257,0,33,65,140,0
106,273,0,28,60,116,0
75,232,0,33,61,110,0
107,273,0,24,61,96,0
124,288,0,22,67,118,0
122,280,0,23,65,125,1
101,245,0,23,63,130,1
128,283,0,28,63,125,1
104,282,0,36,65,115,1
97,246,0,37,63,150,0
137,274,0,26,69,137,1
103,273,0,31,63,170,1
142,276,0,38,63,170,0
130,289,0,27,66,130,0
156,292,0,26,63,118,0
133,284,0,25,66,125,1
120,274,0,24,62,120,0
91,270,0,24,60,149,1
127,274,0,21,62,110,0
153,286,0,26,63,107,1
121,276,0,39,63,130,0
120,277,0,27,63,126,0
99,272,0,27,62,103,1
149,293,0,35,65,116,0
129,280,0,23,64,104,0
139,292,0,25,68,135,0
114,274,0,33,67,148,1
138,287,0,30,66,145,0
129,274,0,29,71,999,1
138,294,0,32,65,117,0
131,296,0,37,63,143,0
125,305,0,22,70,196,1
114,999,0,24,67,113,1
128,281,0,33,59,117,0
134,268,0,28,62,112,0
114,271,0,27,60,104,0
92,999,0,31,67,130,0
85,278,0,23,61,103,1
135,282,0,22,64,100,0
87,255,0,28,61,100,1
125,302,0,37,62,162,0
128,999,0,35,62,110,0
105,254,0,29,64,137,0
120,279,0,27,60,121,1
119,274,0,33,64,120,0
116,286,0,24,61,999,0
107,280,0,36,65,117,1
119,273,0,24,61,108,1
133,279,0,37,66,140,0
155,287,0,33,66,143,0
126,273,0,22,65,150,0
129,303,0,27,64,125,0
137,274,0,29,65,154,0
103,269,0,26,65,999,1
125,302,0,28,65,125,0
91,255,0,19,67,136,1
134,293,0,21,65,999,0
95,279,0,22,66,145,1
118,276,0,29,64,114,0
141,278,0,33,66,109,1
131,283,0,25,67,215,0
121,264,0,32,66,145,0
100,243,0,39,65,170,1
131,288,0,24,61,103,0
118,284,0,26,66,133,0
152,288,0,35,67,130,0
121,284,0,34,69,155,0
117,276,0,31,69,150,0
115,283,0,25,61,150,1
112,277,0,23,65,110,0
94,267,0,30,62,120,1
109,272,0,35,66,154,0
132,225,0,28,67,148,0
117,278,0,25,62,103,0
101,266,0,20,67,110,1
112,294,0,25,64,125,1
128,283,0,24,60,100,0
128,279,0,25,66,147,1
117,258,0,31,64,120,0
134,278,0,24,69,135,0
127,284,0,28,65,145,0
93,269,0,21,65,104,1
122,275,0,27,65,165,0
100,265,0,39,62,107,1
147,293,0,32,65,123,0
120,299,0,25,65,110,0
144,277,0,30,63,127,0
105,268,0,32,61,115,1
136,276,0,23,66,155,0
102,262,0,24,63,125,0
160,300,0,29,71,175,1
113,275,0,24,68,140,1
126,282,0,38,66,250,0
126,271,0,29,68,148,0
115,278,0,29,61,128,0
127,336,0,29,99,999,0
119,284,0,20,66,132,0
129,999,0,23,99,999,1
123,318,0,21,64,152,0
118,282,0,22,68,135,1
133,287,0,24,60,104,1
105,281,0,39,61,999,0
134,290,0,22,60,121,0
144,288,0,21,67,111,0
111,273,0,43,62,138,0
125,262,0,36,66,190,0
135,296,0,30,63,123,0
134,289,0,22,63,125,0
116,289,0,22,65,160,1
129,291,0,29,69,123,0
113,301,0,26,67,105,1
131,295,0,23,65,123,1
126,293,0,29,59,110,9
121,272,0,22,62,109,0
121,271,0,25,68,118,1
138,287,0,24,65,115,0
136,278,0,23,61,105,0
120,279,0,30,66,131,0
122,278,0,31,72,155,1
134,267,0,30,66,170,0
101,280,0,25,65,123,1
112,288,0,32,62,125,0
132,290,0,25,64,120,0
136,285,0,23,62,175,0
113,277,0,23,65,192,1
96,271,0,23,64,116,0
124,277,0,29,63,220,0
113,306,0,21,62,150,0
131,286,0,34,99,999,1
137,258,0,25,63,117,0
133,268,0,24,61,93,0
107,244,0,20,58,97,0
96,265,0,28,59,135,1
142,278,0,35,66,136,1
136,275,0,22,63,110,0
75,239,0,26,63,124,1
125,302,0,32,61,999,1
104,295,0,26,65,155,1
130,274,0,30,63,150,0
90,290,0,22,63,168,0
118,276,0,22,66,147,1
123,320,0,22,66,117,0
137,291,0,34,61,110,0
101,268,0,19,63,140,0
142,275,0,25,64,132,0
98,282,0,20,63,97,1
124,283,0,23,63,112,0
151,310,0,21,65,999,0
109,281,0,23,61,105,0
150,285,0,22,61,110,1
119,282,0,26,68,150,1
131,280,0,38,65,125,0
101,272,0,29,63,150,1
113,246,0,19,62,138,1
127,270,0,25,62,150,0
97,260,0,23,61,99,1
117,282,0,28,64,115,0
150,290,0,21,65,125,0
85,234,0,33,67,130,0
128,288,0,27,70,145,0
105,233,0,34,61,130,0
90,269,0,26,67,125,9
115,274,0,22,65,130,1
107,290,0,28,62,135,0
121,275,0,24,63,121,1
119,286,0,20,64,180,0
117,275,0,20,64,145,1
134,264,0,26,68,136,0
117,288,0,35,65,142,0
115,268,0,28,66,128,0
110,254,0,23,63,120,1
130,282,0,21,62,106,1
140,274,0,23,63,106,1
111,284,0,22,99,999,1
93,249,0,33,66,117,0
154,292,0,42,65,116,1
125,290,0,19,64,127,0
93,318,0,31,66,135,0
122,277,0,33,63,135,1
129,267,0,22,63,160,0
126,276,0,23,63,120,0
85,274,0,24,68,155,0
173,293,0,30,63,110,0
144,329,0,22,65,190,1
114,278,0,25,65,140,1
111,999,0,27,63,105,1
154,287,0,27,65,125,1
150,274,0,25,67,117,1
111,278,0,21,62,125,0
126,277,0,32,66,128,0
122,261,0,28,65,124,0
141,282,0,24,68,169,0
142,274,0,24,63,125,0
99,262,0,38,59,110,1
113,286,0,23,63,105,0
149,282,0,21,61,110,0
117,328,0,29,65,125,1
130,274,0,26,64,185,9
106,275,0,31,65,142,9
128,290,0,22,64,118,0
125,286,0,21,64,139,0
114,290,0,30,66,160,0
130,285,0,23,63,128,1
116,148,0,28,66,135,0
81,256,0,30,64,148,1
124,287,0,27,62,105,1
125,292,0,22,65,122,0
110,262,0,25,66,140,0
125,279,0,23,63,104,1
138,294,0,40,64,125,0
142,284,0,39,66,132,0
115,278,0,23,60,102,1
102,280,0,38,67,140,0
140,294,0,25,61,103,0
133,276,1,22,63,119,0
127,290,0,35,66,165,0
104,274,1,20,62,115,1
119,275,0,42,67,156,1
152,301,0,29,65,150,0
123,284,1,20,65,120,1
143,273,0,19,66,135,0
131,308,0,40,65,160,0
141,319,1,20,67,140,1
129,277,0,30,66,142,1
113,282,1,36,59,140,0
119,292,0,33,62,118,1
109,295,1,23,63,103,1
104,280,1,27,68,146,1
131,282,1,21,66,126,0
110,293,1,28,64,135,1
148,279,0,27,71,189,0
137,283,1,20,65,157,0
117,283,0,27,63,108,0
115,302,1,22,67,135,0
98,280,0,35,64,122,1
136,303,1,20,68,148,1
121,276,1,23,71,152,1
132,285,1,25,63,140,0
91,264,0,36,60,100,1
119,294,0,34,59,105,0
85,273,0,26,60,105,1
106,271,1,26,61,110,1
132,284,0,29,64,122,0
80,266,1,25,62,125,0
109,286,0,24,64,125,1
111,306,0,27,61,102,0
143,292,1,21,65,125,0
136,290,0,26,66,135,0
110,285,1,19,64,130,0
98,257,0,29,66,130,1
108,305,1,24,65,112,0
101,295,0,18,62,145,1
71,281,0,32,60,117,1
124,292,0,29,68,176,1
93,256,0,34,66,999,1
106,276,0,30,66,130,0
101,278,0,25,62,112,1
100,277,0,31,62,100,1
104,269,0,35,63,110,1
117,270,0,24,67,135,1
117,267,0,29,65,120,1
149,279,0,25,67,135,0
135,284,0,25,66,123,0
110,283,1,21,66,129,0
121,276,0,31,67,130,0
142,285,1,24,66,136,0
104,260,0,33,64,145,0
138,296,0,34,66,120,0
112,278,1,21,63,120,0
117,293,0,39,60,120,1
109,282,0,25,62,106,1
131,266,1,28,67,135,0
120,273,0,29,64,130,1
116,270,0,29,63,132,0
140,290,0,23,65,110,0
103,273,1,22,64,110,1
120,279,1,23,67,135,0
139,260,1,32,64,127,0
123,254,0,26,62,130,1
104,280,1,23,64,107,1
131,283,0,31,99,999,0
111,270,0,22,59,103,0
122,277,0,32,63,157,1
116,271,1,30,67,144,1
129,277,0,27,68,130,1
133,292,0,30,65,112,1
110,277,0,25,61,130,0
105,276,0,22,67,130,0
93,246,0,37,65,130,0
122,281,0,42,63,103,1
133,293,0,23,64,110,1
130,296,1,22,66,117,1
104,307,0,24,59,122,0
106,278,0,31,65,110,1
120,281,0,33,63,113,0
121,284,0,27,63,999,1
118,276,1,18,63,128,0
140,290,1,19,67,132,1
114,268,0,22,64,104,0
116,280,0,40,62,159,0
129,284,0,24,64,115,0
120,286,0,22,62,115,1
127,281,0,24,63,112,1
107,278,1,27,99,135,0
71,234,0,32,64,110,1
88,274,0,30,66,130,0
107,300,0,19,99,999,1
122,286,0,23,64,145,0
106,302,1,19,66,147,0
135,285,0,30,66,130,0
107,290,0,26,63,112,0
129,294,0,32,62,170,1
126,274,0,39,62,122,0
116,293,1,26,64,125,0
124,294,0,26,62,122,0
123,281,0,23,68,136,0
145,315,0,39,67,143,1
102,278,0,27,67,135,1
129,293,0,30,65,130,1
98,276,1,22,61,121,0
110,272,0,28,60,108,0
135,282,0,24,67,128,1
101,278,1,20,62,105,0
96,266,0,26,65,125,0
104,276,1,18,60,109,1
100,249,0,24,67,100,0
154,292,0,40,66,145,0
127,293,0,31,67,137,0
126,288,0,31,62,150,0
126,282,1,23,66,115,1
127,279,0,26,67,155,1
98,275,0,25,65,112,1
127,288,1,21,66,130,0
129,299,0,22,68,145,0
131,292,1,22,64,124,1
132,289,1,19,66,145,0
127,280,0,27,62,118,0
99,313,1,34,59,100,1
115,290,0,30,64,140,1
145,290,1,24,67,125,0
102,249,1,23,67,134,1
136,299,0,29,64,115,0
121,286,1,99,99,999,0
121,282,0,22,66,133,0
120,286,0,25,62,105,0
118,261,0,26,60,104,0
127,304,1,26,62,105,0
132,281,1,24,63,117,0
102,258,1,22,65,135,0
143,279,0,39,65,129,1
118,277,0,25,62,120,0
102,286,1,22,64,140,0
163,280,0,35,69,139,0
132,294,0,32,64,116,0
116,276,0,33,61,180,0
138,288,1,19,66,124,0
139,279,0,20,64,143,0
132,298,1,23,61,137,0
87,282,0,27,63,104,1
131,297,0,30,67,132,0
130,282,0,26,67,147,1
123,290,0,28,66,107,1
115,276,1,18,63,110,0
116,272,0,27,64,130,1
119,286,1,20,67,130,0
125,279,1,19,67,135,0
144,282,0,33,66,155,1
123,269,0,26,67,132,0
120,276,0,23,66,114,0
140,251,0,28,63,210,0
120,271,1,17,64,142,1
116,272,0,99,63,138,1
120,289,1,31,59,102,0
146,280,0,23,61,145,0
112,283,1,21,62,102,1
115,269,0,30,62,115,9
132,278,0,20,64,150,1
146,263,0,39,53,110,1
122,275,0,30,68,140,0
128,292,0,32,66,130,0
119,277,0,24,63,120,1
135,278,0,27,66,148,0
116,315,0,26,99,999,0
129,235,0,24,66,135,0
116,293,1,28,62,108,0
100,275,0,27,64,111,1
118,280,0,27,99,999,1
138,257,0,38,67,138,0
123,282,0,22,65,130,0
113,288,1,21,61,120,0
129,280,1,24,65,140,1
122,280,0,24,67,127,1
132,281,1,21,67,140,0
120,269,1,40,63,130,0
114,283,1,20,65,115,0
130,280,0,29,66,135,0
117,286,0,32,66,127,1
142,285,0,33,63,124,0
144,273,0,27,62,118,1
127,262,1,32,64,125,0
115,270,0,25,67,165,1
85,258,0,41,67,137,0
99,274,0,28,66,118,1
123,323,1,17,64,140,0
112,281,1,23,61,150,0
68,223,0,32,66,149,1
102,283,1,19,65,127,1
109,273,0,37,65,138,1
102,267,1,25,60,93,1
99,275,0,23,61,125,1
78,256,1,29,65,123,0
128,284,1,19,66,111,1
107,303,1,25,67,133,0
136,295,0,23,64,147,0
101,278,0,27,61,99,1
100,275,1,25,64,125,0
109,272,0,41,66,154,1
117,281,1,21,70,141,1
88,252,1,21,60,115,1
95,270,0,35,65,135,1
119,280,1,25,61,999,1
123,272,0,28,99,999,0
127,291,1,24,66,135,1
107,293,0,20,65,155,1
124,291,0,26,66,999,0
126,262,0,37,66,135,1
98,278,0,27,63,110,1
96,241,0,23,64,130,1
104,282,0,24,63,144,0
133,273,1,33,63,135,0
93,267,0,25,63,135,1
101,280,1,24,65,123,1
118,277,0,21,64,155,0
130,289,0,21,61,130,1
125,288,0,22,63,128,1
140,291,1,19,65,122,0
115,290,1,19,65,118,0
130,293,0,26,63,123,0
114,277,1,31,64,125,0
105,278,0,21,64,120,0
101,289,1,31,60,125,0
132,286,0,26,67,122,1
112,252,0,37,64,162,0
69,232,0,31,59,103,1
114,264,0,26,63,110,1
123,267,0,29,63,111,1
129,284,1,20,66,130,1
114,283,1,15,64,117,1
115,290,0,31,62,95,0
98,272,1,35,64,129,0
128,283,0,27,67,126,0
119,279,1,20,99,999,1
119,271,0,28,64,175,1
154,288,0,25,65,147,0
127,247,1,21,63,140,0
131,263,0,29,64,180,1
129,288,0,28,59,102,0
114,286,1,22,64,116,1
110,280,0,29,62,110,1
103,268,0,31,64,150,1
117,287,0,20,65,115,1
138,282,0,25,64,120,0
126,280,0,24,66,147,1
124,271,0,23,66,145,0
111,284,0,34,62,110,0
132,282,0,28,67,200,1
103,240,0,26,65,140,0
158,285,0,28,62,130,0
146,277,0,32,99,999,0
101,286,1,21,64,117,1
132,290,0,26,66,125,0
114,293,1,20,66,180,1
71,277,0,40,69,135,0
116,282,0,19,64,120,0
108,271,0,19,60,109,1
123,298,0,25,64,113,1
129,289,0,37,63,132,0
134,282,0,24,62,110,0
113,298,0,30,60,124,1
123,277,1,20,65,160,0
147,277,0,30,68,160,0
121,270,1,20,62,103,0
125,284,1,19,67,130,0
115,277,1,25,66,128,0
101,289,0,27,59,96,0
93,271,0,30,65,127,1
109,275,0,33,66,120,0
115,276,1,23,60,106,0
130,293,1,23,65,122,1
123,278,0,21,61,89,0
111,300,0,20,64,108,1
97,279,1,24,64,138,1
122,292,1,25,65,125,0
124,300,0,28,63,95,0
129,276,0,26,66,145,0
124,290,0,26,59,140,0
107,280,0,20,60,107,1
142,273,1,22,62,125,0
129,287,1,29,66,135,0
174,281,0,37,67,155,0
105,264,0,30,65,105,1
103,291,1,26,63,102,0
124,285,1,27,63,114,0
105,265,0,43,65,124,0
133,275,0,36,65,137,1
161,302,1,22,70,170,1
105,260,0,23,64,197,0
108,281,0,41,66,171,0
153,297,0,27,66,145,0
133,280,1,25,61,130,0
115,269,0,41,63,165,1
127,254,0,27,67,146,1
128,271,0,41,65,135,1
117,265,0,40,68,134,1
123,274,0,23,66,135,0
119,288,1,22,64,132,1
141,284,1,17,64,105,0
91,260,0,26,62,110,1
116,291,0,29,65,133,1
116,255,0,24,65,132,0
121,273,0,32,64,112,0
111,274,0,36,67,159,0
102,257,0,25,66,135,0
118,283,0,24,65,150,0
126,294,1,22,65,125,1
98,286,0,31,62,105,1
131,288,1,28,65,125,0
115,278,0,21,60,113,0
103,281,1,22,59,98,1
147,301,0,26,65,130,0
123,308,1,19,65,135,0
125,283,0,22,65,119,0
117,270,0,30,67,130,1
99,268,0,29,71,150,0
115,283,0,31,66,127,1
116,265,0,36,63,120,0
118,297,0,35,68,140,1
170,303,1,21,64,129,0
104,270,0,25,61,110,0
108,269,1,20,62,114,0
144,289,1,17,69,130,1
99,250,1,26,66,115,0
97,263,1,25,63,107,0
142,284,0,37,68,155,9
85,270,1,19,63,118,1
130,285,1,24,66,126,1
117,275,0,22,62,115,1
109,302,0,24,64,110,0
147,285,0,24,64,137,0
105,281,1,23,64,115,0
135,278,1,27,68,139,1
115,273,1,23,67,215,1
123,280,0,23,65,140,1
105,274,1,26,61,100,0
154,271,0,36,69,160,1
110,276,0,25,63,107,1
119,285,1,26,62,108,0
103,292,1,28,62,132,0
117,272,0,25,64,116,0
120,289,0,23,69,165,0
145,278,0,24,62,109,0
104,271,0,20,62,98,1
123,268,1,18,62,110,1
124,272,0,27,62,110,0
129,275,0,26,64,115,1
91,248,0,33,63,202,0
109,295,0,32,61,135,0
108,268,0,22,58,112,1
79,268,0,36,61,108,0
133,301,0,23,62,108,0
114,309,1,27,62,118,0
128,273,0,34,61,125,0
129,280,1,24,65,126,0
97,234,1,26,65,112,0
103,276,1,21,62,130,1
176,293,1,19,68,180,0
143,294,0,44,65,145,0
127,292,1,21,68,130,1
107,256,0,28,59,90,1
113,268,0,31,62,100,0
106,279,1,21,62,118,1
152,285,0,24,61,120,1
150,275,0,29,65,145,0
136,278,0,35,64,118,1
151,298,0,37,64,135,9
124,279,0,35,66,129,0
123,284,1,18,64,112,1
119,288,0,37,62,128,0
122,291,0,40,64,155,0
112,250,0,34,67,124,0
93,270,0,25,64,125,1
109,271,0,27,61,999,1
136,274,1,20,63,165,0
121,999,0,31,68,132,0
150,292,0,26,64,124,0
94,264,1,26,64,135,0
120,280,0,29,99,999,1
146,306,0,38,63,112,0
129,274,0,19,65,101,1
125,292,0,27,65,117,1
124,273,0,21,63,115,0
141,282,0,27,63,115,0
96,266,0,33,67,135,1
138,297,0,30,66,133,1
127,282,0,28,67,134,0
114,251,0,26,64,119,1
103,297,0,31,64,125,0
127,288,1,20,65,115,1
141,292,0,29,62,110,9
113,274,0,23,63,108,1
99,249,1,31,57,98,1
97,279,0,33,61,105,1
116,275,1,20,68,145,0
126,297,0,26,66,120,1
158,296,0,28,66,140,9
119,277,0,28,66,130,1
123,283,0,27,62,110,0
129,287,0,24,60,107,0
117,256,0,37,65,132,1
100,275,0,26,60,115,0
131,274,0,28,64,118,1
146,279,0,27,64,124,0
84,267,0,29,60,95,0
115,302,0,28,64,116,0
115,281,0,25,60,94,0
118,284,0,28,70,145,1
91,292,1,19,61,125,0
112,255,0,39,60,115,0
115,316,1,29,64,110,0
110,269,0,38,61,102,0
117,277,0,34,66,140,0
109,268,1,29,65,120,1
99,267,0,22,62,94,0
131,274,0,27,62,160,1
136,291,1,25,61,105,0
130,298,0,20,62,120,0
134,296,0,35,60,117,1
128,271,0,29,65,126,1
150,286,0,38,67,175,0
86,284,0,39,65,174,1
115,278,0,26,63,112,1
141,281,0,28,99,999,1
78,237,1,23,63,144,0
100,295,1,21,68,125,1
116,270,0,25,68,169,0
110,271,1,26,66,135,0
109,283,0,34,64,120,0
113,259,0,38,64,128,0
136,297,1,23,66,135,0
114,999,0,23,63,116,1
121,273,1,34,61,125,0
117,288,1,28,63,140,0
166,299,0,26,68,140,0
87,229,0,27,62,138,0
120,294,1,23,66,128,1
95,286,0,26,66,118,1
132,273,0,28,62,113,0
90,286,0,32,63,105,1
131,308,0,30,58,150,1
103,279,1,22,65,145,1
144,287,1,33,71,153,1
137,299,0,24,62,115,0
124,270,0,20,64,122,0
136,281,1,27,64,127,0
117,298,1,22,64,160,0
121,269,0,23,62,130,0
116,280,0,34,68,198,0
139,275,0,33,62,118,0
110,280,0,39,67,125,0
86,242,0,20,64,110,1
133,287,0,20,65,165,0
81,254,0,23,62,157,0
133,281,0,33,63,120,0
132,284,1,20,66,140,0
132,287,0,29,64,148,0
137,274,0,27,64,126,0
84,279,0,34,63,190,0
136,279,0,30,69,130,1
92,270,0,34,62,100,1
114,298,1,28,67,114,0
129,274,0,33,69,136,1
167,288,1,19,63,117,0
71,999,0,19,64,120,0
124,282,1,22,65,118,0
105,269,0,27,62,100,1
155,283,1,19,70,137,0
125,279,1,21,66,126,0
125,266,0,21,62,120,1
125,283,1,22,59,96,0
115,315,1,22,62,110,0
174,288,0,25,61,182,0
127,290,0,35,66,122,0
113,262,0,24,60,105,0
115,273,0,22,66,130,1
139,277,0,35,63,140,0
127,275,0,26,62,125,0
111,289,0,26,99,999,1
112,272,0,26,60,98,0
143,285,0,30,64,135,1
116,286,1,22,58,105,1
155,279,0,33,61,125,0
121,290,0,31,64,127,0
110,282,1,21,66,125,1
87,277,0,31,62,120,1
132,330,0,34,64,130,1
105,261,0,32,99,999,1
129,277,0,24,68,142,0
123,280,0,20,62,105,1
91,279,1,27,62,118,0
147,286,0,30,68,147,0
144,289,0,20,62,106,0
128,292,0,30,64,127,0
137,318,1,19,64,110,0
104,289,0,24,60,104,1
120,271,0,32,63,130,0
112,277,1,23,64,118,0
138,286,0,26,63,111,0
96,280,0,27,63,105,1
134,285,0,35,62,134,0
126,285,0,24,64,140,0
112,300,0,29,62,121,0
138,313,1,27,65,111,0
110,275,0,25,63,120,0
83,253,0,29,63,110,1
112,288,1,20,62,110,0
148,286,0,38,68,160,0
119,300,1,34,63,124,0
86,246,0,25,64,113,1
110,269,0,38,63,145,1
126,282,0,23,61,120,0
125,272,0,30,60,96,0
136,252,0,27,63,130,0
127,283,1,29,64,119,0
84,272,0,25,64,150,1
131,278,0,22,66,124,0
123,286,1,21,67,130,1
96,282,1,30,68,127,1
110,286,0,26,62,100,0
123,282,0,29,68,164,0
152,286,1,19,67,135,0
127,288,0,28,65,155,0
117,269,1,21,64,149,1
125,277,0,29,66,139,1
139,273,0,29,68,130,0
114,280,0,31,66,134,1
96,280,1,34,62,127,1
124,289,0,29,63,110,0
107,272,0,30,64,140,1
113,277,0,38,64,108,0
98,292,1,20,65,124,1
119,285,1,28,65,127,0
107,268,0,37,58,112,1
117,255,0,26,61,120,0
117,305,0,24,64,155,0
144,276,0,23,67,129,1
136,268,0,30,63,132,1
121,278,0,28,69,132,0
165,282,0,29,66,145,0
120,279,0,38,64,124,0
125,280,0,30,65,130,1
137,285,0,29,65,110,0
100,288,1,28,61,108,1
134,284,0,28,62,112,0
88,262,0,20,65,118,1
108,291,0,39,65,135,0
123,271,0,41,64,162,0
141,277,0,38,66,162,0
130,270,1,19,66,130,0
139,299,1,20,67,112,0
130,283,0,32,65,118,0
113,289,1,26,59,91,0
77,238,1,23,63,103,1
62,228,0,24,61,107,0
93,245,0,33,61,100,1
109,275,1,37,63,112,1
145,283,0,27,65,125,1
92,224,0,19,63,134,1
120,281,0,26,61,115,0
135,284,0,39,67,141,0
113,287,0,36,63,118,0
126,251,1,28,64,123,0
143,270,1,27,70,148,0
128,282,1,25,64,125,0
98,262,0,22,67,120,0
110,306,1,32,61,122,0
162,284,0,27,64,126,0
116,292,1,20,65,118,0
128,284,0,23,62,110,0
111,275,1,18,61,108,1
137,280,0,34,60,107,0
134,278,0,28,99,126,1
100,264,0,29,64,120,1
160,271,0,32,67,215,0
112,267,1,22,62,138,0
134,297,0,27,67,170,1
145,308,0,35,64,110,1
116,295,0,32,65,120,0
126,278,0,26,64,150,1
111,285,0,29,65,130,0
126,282,0,33,62,117,0
109,291,0,39,64,107,0
136,291,0,41,66,191,0
119,286,0,22,63,185,1
103,267,1,21,66,150,1
124,284,1,17,62,112,0
155,286,0,31,66,127,0
122,282,1,21,66,110,0
113,285,0,26,66,140,0
122,273,0,26,66,210,0
126,293,1,27,62,111,0
116,277,0,41,64,124,1
102,294,0,21,65,130,1
110,181,0,27,64,133,0
133,285,1,30,64,160,0
125,283,0,29,65,125,0
164,286,1,32,66,143,0
133,297,0,36,61,125,0
135,300,0,25,64,999,0
124,293,1,19,65,150,0
122,306,1,22,62,100,0
121,271,1,34,63,129,1
100,272,0,30,64,150,1
129,999,1,19,61,110,0
90,266,1,26,67,135,0
128,272,1,18,67,109,0
116,280,1,22,59,999,1
86,276,1,23,65,125,1
123,282,0,30,63,118,0
87,275,0,28,63,110,1
128,291,1,27,63,132,0
120,288,0,28,63,125,0
125,301,1,35,68,181,0
118,265,0,27,61,123,0
116,284,1,24,66,117,0
131,262,0,22,67,135,0
151,286,1,22,66,130,0
88,273,0,20,66,110,1
137,284,0,30,67,110,0
127,289,0,23,67,140,0
96,278,1,18,60,120,1
129,281,0,31,67,155,0
128,288,1,26,65,114,0
85,255,0,24,68,159,0
111,281,1,27,64,112,0
124,275,0,28,61,116,0
112,292,1,28,62,110,1
115,281,0,28,61,128,1
72,271,0,39,61,136,0
122,281,1,24,65,137,1
116,291,0,26,66,153,0
127,272,0,20,64,130,1
90,266,0,23,61,99,1
99,273,1,27,59,115,0
144,307,1,26,66,125,0
138,280,1,30,65,175,0
58,245,0,34,64,156,1
109,265,1,24,63,107,1
110,277,1,19,62,160,0
129,278,0,27,63,128,0
150,284,0,40,67,130,0
128,279,0,27,66,135,0
142,284,1,31,66,137,1
115,268,1,31,64,125,0
108,274,0,28,66,175,9
108,283,0,35,62,108,0
139,281,0,27,63,137,0
115,275,0,25,61,155,1
136,288,0,23,62,217,0
163,289,1,25,64,126,1
131,285,0,26,64,130,0
77,238,0,38,67,135,1
124,283,1,33,67,156,1
104,270,1,26,62,115,0
102,267,1,24,61,109,1
94,268,0,30,62,105,1
158,295,1,37,70,137,0
112,275,1,21,68,143,1
119,286,0,26,64,123,1
97,279,0,29,68,178,1
99,252,0,21,64,120,0
115,264,1,23,67,134,1
139,284,0,37,61,121,0
144,304,1,27,58,102,1
99,270,0,22,63,115,1
105,280,1,22,63,116,0
89,275,0,34,66,170,0
129,270,0,43,67,160,0
119,270,1,20,64,109,0
114,291,0,35,60,112,0
106,289,0,28,67,120,1
122,292,1,34,65,133,0
136,261,0,24,65,110,0
121,286,1,22,69,130,1
112,282,0,26,65,122,0
112,266,0,26,64,122,0
123,314,0,22,61,121,1
139,286,0,33,65,125,1
125,290,0,36,59,105,0
105,295,1,20,64,112,1
130,276,0,41,68,130,0
146,294,0,22,66,145,1
133,290,0,21,64,145,0
147,296,1,19,67,124,0
109,269,0,23,63,113,0
122,286,0,23,64,120,1
135,260,0,43,65,135,0
107,999,0,19,60,118,0
117,272,0,32,66,118,0
138,284,0,30,66,133,1
120,283,0,28,64,122,1
119,273,0,35,65,125,1
118,278,1,19,62,126,0
105,330,0,23,64,112,1
113,306,1,21,65,137,0
136,999,0,36,66,135,0
148,291,1,21,63,115,0
140,281,1,22,69,135,0
134,287,1,33,67,131,0
120,280,0,31,61,111,0
123,296,1,26,64,110,1
102,275,0,43,64,160,0
55,204,0,35,65,140,0
103,276,1,19,63,149,1
123,283,0,21,65,110,0
105,270,1,27,65,134,1
138,289,0,33,65,155,0
128,281,0,28,63,150,0
139,285,0,30,65,129,1
104,288,1,27,61,122,1
159,296,1,27,64,112,0
118,276,0,29,62,130,1
99,285,0,25,69,128,1
144,281,0,20,63,120,0
121,270,0,25,62,108,1
117,265,1,24,66,98,0
119,293,1,23,65,127,0
105,281,1,19,61,130,0
125,283,0,37,63,145,1
119,259,0,37,62,130,0
101,273,0,39,60,113,0
105,277,1,25,64,156,0
110,281,0,27,60,110,0
100,270,1,21,65,132,1
98,284,0,29,68,140,0
127,276,0,37,64,159,0
117,324,0,22,62,164,1
122,278,0,37,68,114,0
122,273,1,23,64,130,1
118,281,1,36,66,140,1
137,303,1,23,66,127,1
120,275,0,32,63,115,1
143,285,0,27,68,185,0
108,270,0,29,67,124,1
131,284,1,19,61,114,1
110,277,0,36,61,116,0
105,276,0,20,62,112,1
133,274,0,30,63,999,0
125,255,0,23,63,133,0
78,258,1,24,66,115,1
114,289,0,36,60,115,0
111,278,0,29,65,145,1
103,250,0,40,59,140,0
114,276,0,26,62,127,0
75,247,0,36,64,120,1
169,296,0,33,67,185,0
94,271,0,36,61,130,1
150,287,0,36,62,135,0
144,248,0,30,70,145,0
144,291,0,28,67,130,0
143,313,0,20,68,150,0
145,304,1,25,63,109,1
121,285,0,34,64,110,0
105,256,0,31,66,142,0
134,286,0,25,64,125,0
129,294,1,21,65,132,0
114,276,0,24,63,110,0
97,265,0,30,61,110,0
160,292,0,28,64,120,0
65,237,0,31,67,130,0
145,288,0,28,64,116,0
95,273,0,23,60,90,0
139,293,1,21,69,130,0
123,288,0,27,63,125,0
109,283,0,23,65,112,1
110,268,0,34,64,127,0
122,296,1,24,65,132,0
115,307,0,34,65,128,1
117,323,0,26,62,999,0
108,279,1,19,64,115,0
120,287,0,23,67,116,1
131,269,0,36,68,145,0
136,283,1,24,63,119,0
125,290,0,32,63,135,0
96,285,1,20,66,117,1
102,282,1,29,65,125,1
102,288,1,18,65,117,0
112,277,1,22,67,120,0
135,272,0,30,65,130,0
91,266,0,23,60,120,1
129,276,0,31,63,125,0
155,290,0,26,66,129,1
109,274,0,33,69,144,1
80,262,1,31,61,100,1
125,273,0,30,64,145,0
94,284,0,24,63,104,1
148,281,0,27,63,110,1
73,277,0,29,65,145,0
123,267,1,19,66,132,1
65,232,0,24,66,125,1
118,279,1,21,64,108,0
102,283,0,39,60,119,0
120,280,0,24,61,118,0
108,270,1,21,65,130,1
122,280,1,45,62,128,0
103,268,0,32,62,97,1
105,312,0,41,61,115,1
126,273,1,25,68,135,0
145,316,0,22,67,142,0
139,293,0,34,66,131,0
124,290,0,26,65,165,0
121,282,0,30,65,122,0
126,299,1,21,60,114,0
119,286,1,33,67,137,0
114,277,1,19,63,107,0
118,272,0,23,64,113,0
127,295,0,36,65,145,0
117,290,1,22,67,110,0
137,277,0,41,65,126,0
133,292,0,29,65,135,0
100,264,0,28,60,111,1
107,273,1,26,65,135,0
115,276,1,20,62,105,1
91,292,1,26,61,113,1
112,287,0,27,64,110,1
125,289,1,31,61,120,0
157,291,0,33,65,121,0
108,256,1,26,67,130,0
130,279,0,31,62,122,0
135,289,0,25,64,127,0
123,277,0,24,66,122,0
100,281,0,24,61,115,0
124,277,1,23,64,104,0
174,284,0,39,65,163,0
129,278,0,26,67,146,0
119,275,0,27,59,113,1
126,272,1,35,61,120,1
128,267,0,37,61,142,0
116,282,1,19,64,124,0
100,285,0,18,68,127,1
96,285,0,37,66,135,1
131,279,1,20,68,122,1
110,292,0,35,62,127,0
108,278,0,28,63,125,1
129,275,0,24,65,135,0
141,285,0,23,67,150,0
110,276,0,31,70,155,0
118,273,0,21,63,120,0
111,267,1,24,60,115,0
160,297,0,20,68,136,0
120,280,0,30,60,115,0
121,281,0,29,63,108,0
113,282,0,30,64,118,1
117,270,0,23,58,115,0
158,267,0,35,64,125,0
128,277,0,39,61,120,0
158,289,0,30,66,140,0
133,289,0,22,65,123,1
163,298,0,37,61,98,0
128,282,1,19,66,118,0
126,271,1,21,60,105,0
127,283,0,42,62,154,1
134,287,0,40,63,118,0
140,274,0,41,63,122,0
102,285,0,29,63,117,1
100,252,0,24,61,150,0
120,295,0,29,59,100,1
98,279,1,18,65,115,1
130,246,0,19,62,118,0
104,280,0,41,63,118,1
122,285,0,31,62,102,1
137,276,1,25,64,127,0
114,285,1,20,61,104,0
63,236,1,24,58,99,0
98,318,0,23,63,107,0
99,268,0,32,63,124,1
89,238,1,26,64,136,0
117,283,0,22,65,142,1
143,281,0,29,67,132,0
106,279,0,29,63,125,1
99,246,0,35,62,106,0
156,300,0,27,65,120,1
72,266,1,25,66,200,1
75,266,0,37,61,113,1
97,285,0,35,61,112,1
106,264,0,41,64,114,0
91,225,0,18,68,117,1
117,269,1,28,61,99,0
117,284,0,25,66,177,1
112,291,0,23,66,145,0
112,270,0,29,61,124,0
141,293,0,28,61,125,0
131,259,0,19,63,134,0
130,290,0,19,65,123,1
132,270,0,26,67,140,0
114,265,0,23,67,130,1
160,291,0,34,64,110,1
106,283,0,24,63,119,0
84,260,1,20,64,104,1
112,268,1,25,59,103,0
139,311,0,37,66,135,0
104,267,0,30,63,180,0
130,294,0,32,63,110,1
71,254,0,19,61,145,1
82,270,0,21,65,150,1
119,280,1,21,64,128,0
123,353,0,26,63,115,0
115,278,0,27,59,95,0
124,289,1,21,67,145,1
138,292,0,25,65,130,1
88,276,0,25,63,103,1
146,305,0,23,99,999,0
128,241,1,17,64,126,0
82,274,0,31,64,101,1
100,274,0,24,63,113,0
114,271,0,32,61,130,0
97,269,0,20,65,137,1
126,298,0,24,61,112,0
122,275,1,20,65,127,0
152,295,0,39,62,140,0
116,274,0,21,62,110,1
132,302,0,36,63,145,1
84,260,1,37,66,140,0
119,277,1,18,61,89,1
104,275,0,24,99,999,0
106,312,0,24,62,135,1
124,999,1,39,65,228,0
139,291,0,24,65,160,0
103,273,0,36,65,158,1
112,299,0,24,67,145,1
96,276,0,33,64,127,1
102,281,1,19,67,135,1
120,300,0,34,63,150,1
102,338,0,19,64,170,0
97,255,1,22,63,107,1
113,285,0,22,70,145,0
130,297,0,32,58,130,0
97,260,1,25,63,115,1
116,273,0,31,61,120,0
114,266,0,29,64,113,0
127,242,0,17,61,135,1
87,247,1,18,66,125,1
141,281,0,29,54,156,1
144,283,1,25,66,140,0
116,273,0,33,66,130,1
75,265,0,21,65,103,1
138,286,1,28,68,120,0
99,271,0,39,69,151,0
118,293,0,21,63,103,0
152,267,0,28,99,119,1
97,266,0,24,62,109,0
146,319,0,28,66,145,0
81,285,0,19,63,150,1
110,321,0,28,66,180,0
135,284,1,19,60,95,0
114,290,1,21,65,120,1
124,288,1,21,64,116,1
115,262,1,23,64,136,1
143,281,0,28,65,135,1
113,287,1,29,70,145,1
109,244,1,21,63,102,1
103,278,0,30,60,87,1
118,276,0,34,64,116,0
127,290,0,27,65,121,0
132,270,0,27,65,126,0
113,275,1,27,60,100,0
128,265,0,24,67,120,0
130,291,0,30,65,150,1
125,281,1,21,65,110,0
117,297,0,38,65,129,0
